24:039  22:500  Found BIOS RSDP at f0010
24:039  0:000  Printing ACPI tables from RSDP f0010 ...
24:039  0:000   f0010: 'RSD PTR ', Rev: 2 (Acpi 2.0 or newer), Len: 36
24:039  0:000    (Xsdt: 7a51e0a0, Rsdt: 7a51e028)
24:039  0:000    7a51e0a0: 'XSDT', 'WORTMANN', Rev: 1, Len: 188
24:039  0:000    7a51e028: 'RSDT', 'WORTMANN', Rev: 1, Len: 112
24:039  0:000    Tables in Xsdt: 19
24:039  0:000    0. 7a53ff00: 'FACP', 'WORTMANN', Rev: 5, Len: 268
24:039  0:000        (Dsdt: 7A51E1E8, Facs: 7AE3CF80, XDsdt: 7a51e1e8, XFacs: 0)
24:039  0:000        7a51e1e8: 'DSDT', 'WORTMANN', Rev: 2, Len: 138514
24:043  0:003        7ae3cf80: 'FACS', Ver: 2, Len: 64
24:043  0:000    1. 7a540010: 'APIC', 'WORTMANN', Rev: 3, Len: 132
24:043  0:000    2. 7a540098: 'FPDT', 'WORTMANN', Rev: 1, Len: 68
24:043  0:000    3. 7a5400e0: 'FIDT', 'WORTMANN', Rev: 1, Len: 156
24:043  0:000    4. 7a540180: 'MCFG', 'WORTMANN', Rev: 1, Len: 60
24:043  0:000    5. 7a5401c0: 'HPET', 'WORTMANN', Rev: 1, Len: 56
24:043  0:000    6. 7a5401f8: 'LPIT', 'WORTMANN', Rev: 1, Len: 148
24:043  0:000    7. 7a540290: 'SSDT', 'WORTMANN', Rev: 2, Len: 584
24:043  0:000    8. 7a5404d8: 'SSDT', 'WORTMANN', Rev: 2, Len: 11182
24:043  0:000    9. 7a543088: 'SSDT', 'WORTMANN', Rev: 2, Len: 3043
24:043  0:000    10. 7a543c70: 'SSDT', 'WORTMANN', Rev: 2, Len: 1187
24:043  0:000    11. 7a544118: 'DBGP', 'WORTMANN', Rev: 1, Len: 52
24:043  0:000    12. 7a544150: 'DBG2', 'WORTMANN', Rev: 0, Len: 84
24:043  0:000    13. 7a5441a8: 'SSDT', 'WORTMANN', Rev: 2, Len: 1134
24:043  0:000    14. 7a544618: 'SSDT', 'WORTMANN', Rev: 2, Len: 21612
24:043  0:000    15. 7a549a88: 'UEFI', 'WORTMANN', Rev: 1, Len: 66
24:043  0:000    16. 7a549ad0: 'SSDT', 'WORTMANN', Rev: 2, Len: 3699
24:043  0:000    17. 7a54a948: 'BGRT', 'WORTMANN', Rev: 1, Len: 56
24:043  0:000    18. 7a54a980: 'SLIC', 'WORTMANN', Rev: 1, Len: 374
24:043  0:000    Tables in Rsdt: 19
24:043  0:000    0. 7a51e160: 'FACP', 'WORTMANN', Rev: 2, Len: 132
24:043  0:000        (Dsdt: 7A51E1E8, Facs: 7AE3CF40)
24:043  0:000        7a51e1e8: 'DSDT', 'WORTMANN', Rev: 2, Len: 138514
24:047  0:003        7ae3cf40: 'FACS', Ver: 0, Len: 64
24:047  0:000    1. 7a540010: 'APIC', 'WORTMANN', Rev: 3, Len: 132
24:047  0:000    2. 7a540098: 'FPDT', 'WORTMANN', Rev: 1, Len: 68
24:047  0:000    3. 7a5400e0: 'FIDT', 'WORTMANN', Rev: 1, Len: 156
24:047  0:000    4. 7a540180: 'MCFG', 'WORTMANN', Rev: 1, Len: 60
24:047  0:000    5. 7a5401c0: 'HPET', 'WORTMANN', Rev: 1, Len: 56
24:047  0:000    6. 7a5401f8: 'LPIT', 'WORTMANN', Rev: 1, Len: 148
24:047  0:000    7. 7a540290: 'SSDT', 'WORTMANN', Rev: 2, Len: 584
24:047  0:000    8. 7a5404d8: 'SSDT', 'WORTMANN', Rev: 2, Len: 11182
24:047  0:000    9. 7a543088: 'SSDT', 'WORTMANN', Rev: 2, Len: 3043
24:047  0:000    10. 7a543c70: 'SSDT', 'WORTMANN', Rev: 2, Len: 1187
24:047  0:000    11. 7a544118: 'DBGP', 'WORTMANN', Rev: 1, Len: 52
24:047  0:000    12. 7a544150: 'DBG2', 'WORTMANN', Rev: 0, Len: 84
24:047  0:000    13. 7a5441a8: 'SSDT', 'WORTMANN', Rev: 2, Len: 1134
24:047  0:000    14. 7a544618: 'SSDT', 'WORTMANN', Rev: 2, Len: 21612
24:047  0:000    15. 7a549a88: 'UEFI', 'WORTMANN', Rev: 1, Len: 66
24:047  0:000    16. 7a549ad0: 'SSDT', 'WORTMANN', Rev: 2, Len: 3699
24:047  0:000    17. 7a54a948: 'BGRT', 'WORTMANN', Rev: 1, Len: 56
24:047  0:000    18. 7a54a980: 'SLIC', 'WORTMANN', Rev: 1, Len: 374
24:047  0:000  Found UEFI Acpi 2.0 RSDP at 7a51e000
24:047  0:000  Saving ACPI tables from RSDP 7a51e000 to ACPI\origin ...
24:047  0:000   7a51e000: 'RSD PTR ', Rev: 2 (Acpi 2.0 or newer), Len: 36 -> RSDP.aml
24:105  0:058    (Xsdt: 7a51e0a0, Rsdt: 7a51e028)
24:105  0:000    7a51e0a0: 'XSDT', 'WORTMANN', Rev: 1, Len: 188 -> XSDT.aml
24:182  0:077    7a51e028: 'RSDT', 'WORTMANN', Rev: 1, Len: 112 -> RSDT.aml
24:240  0:057    Tables in Xsdt: 19
24:240  0:000    0. 7a53ff00: 'FACP', 'WORTMANN', Rev: 5, Len: 268 -> FACP.aml
24:298  0:057        (Dsdt: 7A51E1E8, Facs: 7AE3CF80, XDsdt: 7a51e1e8, XFacs: 0)
24:298  0:000        7a51e1e8: 'DSDT', 'WORTMANN', Rev: 2, Len: 138514 -> DSDT.aml
24:396  0:097        7ae3cf80: 'FACS', Ver: 2, Len: 64 -> FACS.aml
24:451  0:055    1. 7a540010: 'APIC', 'WORTMANN', Rev: 3, Len: 132 -> APIC.aml
24:507  0:055    2. 7a540098: 'FPDT', 'WORTMANN', Rev: 1, Len: 68 -> FPDT.aml
24:563  0:055    3. 7a5400e0: 'FIDT', 'WORTMANN', Rev: 1, Len: 156 -> FIDT.aml
24:638  0:075    4. 7a540180: 'MCFG', 'WORTMANN', Rev: 1, Len: 60 -> MCFG.aml
24:708  0:069    5. 7a5401c0: 'HPET', 'WORTMANN', Rev: 1, Len: 56 -> HPET.aml
24:763  0:055    6. 7a5401f8: 'LPIT', 'WORTMANN', Rev: 1, Len: 148 -> LPIT.aml
24:819  0:055    7. 7a540290: 'SSDT', 'WORTMANN', Rev: 2, Len: 584 -> SSDT-0-WORTMANN.aml
24:895  0:075    8. 7a5404d8: 'SSDT', 'WORTMANN', Rev: 2, Len: 11182 -> SSDT-1-WORTMANN.aml
24:964  0:069    9. 7a543088: 'SSDT', 'WORTMANN', Rev: 2, Len: 3043 -> SSDT-2-WORTMANN.aml
25:020  0:055    10. 7a543c70: 'SSDT', 'WORTMANN', Rev: 2, Len: 1187 -> SSDT-3-WORTMANN.aml
25:153  0:133    11. 7a544118: 'DBGP', 'WORTMANN', Rev: 1, Len: 52 -> DBGP.aml
25:208  0:055    12. 7a544150: 'DBG2', 'WORTMANN', Rev: 0, Len: 84 -> DBG2.aml
25:269  0:060    13. 7a5441a8: 'SSDT', 'WORTMANN', Rev: 2, Len: 1134 -> SSDT-4-WORTMANN.aml
25:338  0:069    14. 7a544618: 'SSDT', 'WORTMANN', Rev: 2, Len: 21612 -> SSDT-5-WORTMANN.aml
25:414  0:076    15. 7a549a88: 'UEFI', 'WORTMANN', Rev: 1, Len: 66 -> UEFI.aml
25:477  0:062    16. 7a549ad0: 'SSDT', 'WORTMANN', Rev: 2, Len: 3699 -> SSDT-6-WORTMANN.aml (Found hidden SSDT 7 pcs)
25:532  0:055        * 2049766936: 'SSDT', 'Cpu0Ist', Rev: 2, Len: 1368  53 53 44 54 58 05 00 00 02 92 50 6D 52 65 66 00 Internal length = 1368 -> SSDT-x6_0-Cpu0Ist.aml
25:590  0:057        * 2049765400: 'SSDT', 'ApIst', Rev: 2, Len: 1450  53 53 44 54 AA 05 00 00 02 CE 50 6D 52 65 66 00 Internal length = 1450 -> SSDT-x6_1-ApIst.aml
25:665  0:075        * 2049768472: 'SSDT', 'Cpu0Cst', Rev: 2, Len: 895  53 53 44 54 7F 03 00 00 02 65 50 6D 52 65 66 00 Internal length = 895 -> SSDT-x6_2-Cpu0Cst.aml
25:764  0:098        * 2049772184: 'SSDT', 'ApCst', Rev: 2, Len: 281  53 53 44 54 19 01 00 00 02 EA 50 6D 52 65 66 00 Internal length = 281 -> SSDT-x6_3-ApCst.aml
25:844  0:080        * 2049773336: 'SSDT', 'Cpu0Hwp', Rev: 2, Len: 142  53 53 44 54 8E 00 00 00 02 2B 50 6D 52 65 66 00 Internal length = 142 -> SSDT-x6_4-Cpu0Hwp.aml
25:912  0:067        * 2049771800: 'SSDT', 'ApHwp', Rev: 2, Len: 281  53 53 44 54 19 01 00 00 02 FD 50 6D 52 65 66 00 Internal length = 281 -> SSDT-x6_5-ApHwp.aml
25:980  0:067        * 2049772568: 'SSDT', 'HwpLvt', Rev: 2, Len: 304  53 53 44 54 30 01 00 00 02 85 50 6D 52 65 66 00 Internal length = 304 -> SSDT-x6_6-HwpLvt.aml
26:050  0:070  
26:050  0:000    17. 7a54a948: 'BGRT', 'WORTMANN', Rev: 1, Len: 56 -> BGRT.aml
26:140  0:090    18. 7a54a980: 'SLIC', 'WORTMANN', Rev: 1, Len: 374 -> SLIC.aml
26:210  0:069    Tables in Rsdt: 19
26:210  0:000    0. 7a51e160: 'FACP', 'WORTMANN', Rev: 2, Len: 132 -> RSDT-FACP.aml
26:281  0:070        (Dsdt: 7A51E1E8, Facs: 7AE3CF40)
26:281  0:000        7a51e1e8: 'DSDT', 'WORTMANN', Rev: 2, Len: 138514
26:285  0:003        7ae3cf40: 'FACS', Ver: 0, Len: 64 -> RSDT-FACS.aml
26:368  0:082    1. 7a540010: 'APIC', 'WORTMANN', Rev: 3, Len: 132
26:368  0:000    2. 7a540098: 'FPDT', 'WORTMANN', Rev: 1, Len: 68
26:368  0:000    3. 7a5400e0: 'FIDT', 'WORTMANN', Rev: 1, Len: 156
26:368  0:000    4. 7a540180: 'MCFG', 'WORTMANN', Rev: 1, Len: 60
26:368  0:000    5. 7a5401c0: 'HPET', 'WORTMANN', Rev: 1, Len: 56
26:368  0:000    6. 7a5401f8: 'LPIT', 'WORTMANN', Rev: 1, Len: 148
26:368  0:000    7. 7a540290: 'SSDT', 'WORTMANN', Rev: 2, Len: 584
26:368  0:000    8. 7a5404d8: 'SSDT', 'WORTMANN', Rev: 2, Len: 11182
26:368  0:000    9. 7a543088: 'SSDT', 'WORTMANN', Rev: 2, Len: 3043
26:368  0:000    10. 7a543c70: 'SSDT', 'WORTMANN', Rev: 2, Len: 1187
26:368  0:000    11. 7a544118: 'DBGP', 'WORTMANN', Rev: 1, Len: 52
26:368  0:000    12. 7a544150: 'DBG2', 'WORTMANN', Rev: 0, Len: 84
26:368  0:000    13. 7a5441a8: 'SSDT', 'WORTMANN', Rev: 2, Len: 1134
26:368  0:000    14. 7a544618: 'SSDT', 'WORTMANN', Rev: 2, Len: 21612
26:368  0:000    15. 7a549a88: 'UEFI', 'WORTMANN', Rev: 1, Len: 66
26:368  0:000    16. 7a549ad0: 'SSDT', 'WORTMANN', Rev: 2, Len: 3699
26:368  0:000    17. 7a54a948: 'BGRT', 'WORTMANN', Rev: 1, Len: 56
26:368  0:000    18. 7a54a980: 'SLIC', 'WORTMANN', Rev: 1, Len: 374
26:368  0:000  Found UEFI Acpi 1.0 RSDP at 7a51e000
26:368  0:000  Printing ACPI tables from RSDP 7a51e000 ...
26:368  0:000   7a51e000: 'RSD PTR ', Rev: 2 (Acpi 2.0 or newer), Len: 36
26:368  0:000    (Xsdt: 7a51e0a0, Rsdt: 7a51e028)
26:368  0:000    7a51e0a0: 'XSDT', 'WORTMANN', Rev: 1, Len: 188
26:368  0:000    7a51e028: 'RSDT', 'WORTMANN', Rev: 1, Len: 112
26:368  0:000    Tables in Xsdt: 19
26:368  0:000    0. 7a53ff00: 'FACP', 'WORTMANN', Rev: 5, Len: 268
26:368  0:000        (Dsdt: 7A51E1E8, Facs: 7AE3CF80, XDsdt: 7a51e1e8, XFacs: 0)
26:368  0:000        7a51e1e8: 'DSDT', 'WORTMANN', Rev: 2, Len: 138514
26:372  0:003        7ae3cf80: 'FACS', Ver: 2, Len: 64
26:372  0:000    1. 7a540010: 'APIC', 'WORTMANN', Rev: 3, Len: 132
26:372  0:000    2. 7a540098: 'FPDT', 'WORTMANN', Rev: 1, Len: 68
26:372  0:000    3. 7a5400e0: 'FIDT', 'WORTMANN', Rev: 1, Len: 156
26:372  0:000    4. 7a540180: 'MCFG', 'WORTMANN', Rev: 1, Len: 60
26:372  0:000    5. 7a5401c0: 'HPET', 'WORTMANN', Rev: 1, Len: 56
26:372  0:000    6. 7a5401f8: 'LPIT', 'WORTMANN', Rev: 1, Len: 148
26:372  0:000    7. 7a540290: 'SSDT', 'WORTMANN', Rev: 2, Len: 584
26:372  0:000    8. 7a5404d8: 'SSDT', 'WORTMANN', Rev: 2, Len: 11182
26:372  0:000    9. 7a543088: 'SSDT', 'WORTMANN', Rev: 2, Len: 3043
26:372  0:000    10. 7a543c70: 'SSDT', 'WORTMANN', Rev: 2, Len: 1187
26:372  0:000    11. 7a544118: 'DBGP', 'WORTMANN', Rev: 1, Len: 52
26:372  0:000    12. 7a544150: 'DBG2', 'WORTMANN', Rev: 0, Len: 84
26:372  0:000    13. 7a5441a8: 'SSDT', 'WORTMANN', Rev: 2, Len: 1134
26:372  0:000    14. 7a544618: 'SSDT', 'WORTMANN', Rev: 2, Len: 21612
26:372  0:000    15. 7a549a88: 'UEFI', 'WORTMANN', Rev: 1, Len: 66
26:372  0:000    16. 7a549ad0: 'SSDT', 'WORTMANN', Rev: 2, Len: 3699
26:372  0:000    17. 7a54a948: 'BGRT', 'WORTMANN', Rev: 1, Len: 56
26:372  0:000    18. 7a54a980: 'SLIC', 'WORTMANN', Rev: 1, Len: 374
26:372  0:000    Tables in Rsdt: 19
26:372  0:000    0. 7a51e160: 'FACP', 'WORTMANN', Rev: 2, Len: 132
26:372  0:000        (Dsdt: 7A51E1E8, Facs: 7AE3CF40)
26:372  0:000        7a51e1e8: 'DSDT', 'WORTMANN', Rev: 2, Len: 138514
26:376  0:003        7ae3cf40: 'FACS', Ver: 0, Len: 64
26:376  0:000    1. 7a540010: 'APIC', 'WORTMANN', Rev: 3, Len: 132
26:376  0:000    2. 7a540098: 'FPDT', 'WORTMANN', Rev: 1, Len: 68
26:376  0:000    3. 7a5400e0: 'FIDT', 'WORTMANN', Rev: 1, Len: 156
26:376  0:000    4. 7a540180: 'MCFG', 'WORTMANN', Rev: 1, Len: 60
26:376  0:000    5. 7a5401c0: 'HPET', 'WORTMANN', Rev: 1, Len: 56
26:376  0:000    6. 7a5401f8: 'LPIT', 'WORTMANN', Rev: 1, Len: 148
26:376  0:000    7. 7a540290: 'SSDT', 'WORTMANN', Rev: 2, Len: 584
26:376  0:000    8. 7a5404d8: 'SSDT', 'WORTMANN', Rev: 2, Len: 11182
26:376  0:000    9. 7a543088: 'SSDT', 'WORTMANN', Rev: 2, Len: 3043
26:376  0:000    10. 7a543c70: 'SSDT', 'WORTMANN', Rev: 2, Len: 1187
26:376  0:000    11. 7a544118: 'DBGP', 'WORTMANN', Rev: 1, Len: 52
26:376  0:000    12. 7a544150: 'DBG2', 'WORTMANN', Rev: 0, Len: 84
26:376  0:000    13. 7a5441a8: 'SSDT', 'WORTMANN', Rev: 2, Len: 1134
26:376  0:000    14. 7a544618: 'SSDT', 'WORTMANN', Rev: 2, Len: 21612
26:376  0:000    15. 7a549a88: 'UEFI', 'WORTMANN', Rev: 1, Len: 66
26:376  0:000    16. 7a549ad0: 'SSDT', 'WORTMANN', Rev: 2, Len: 3699
26:376  0:000    17. 7a54a948: 'BGRT', 'WORTMANN', Rev: 1, Len: 56
26:376  0:000    18. 7a54a980: 'SLIC', 'WORTMANN', Rev: 1, Len: 374
